\relax 
\catcode `"\active 
\catcode `<\active 
\catcode `>\active 
\@nameuse{es@quoting}
\providecommand \oddpage@label [2]{}
\select@language{spanish}
\@writefile{toc}{\select@language{spanish}}
\@writefile{lof}{\select@language{spanish}}
\@writefile{lot}{\select@language{spanish}}
\@writefile{toc}{\contentsline {chapter}{\numberline {1}Rep del T\discretionary {\unhbox \voidb@x \hbox {\relax \fontsize  {7}{8}\selectfont  $\leftarrow \joinrel  \rhook $}}{}{}DA Cronolog\IeC {\'\i }a.}{1}}
\@writefile{lof}{\addvspace {10\p@ }}
\@writefile{lot}{\addvspace {10\p@ }}
\newlabel{repConjunto}{{1}{1}}
\@writefile{toc}{\contentsline {section}{\numberline {1.1}Invariante de la representaci\IeC {\'o}n}{1}}
\newlabel{repConjunto_invConjunto}{{1.1}{1}}
\@writefile{toc}{\contentsline {section}{\numberline {1.2}Funci\IeC {\'o}n de abstracci\IeC {\'o}n}{1}}
\newlabel{repConjunto_faConjunto}{{1.2}{1}}
\@writefile{toc}{\contentsline {section}{\numberline {1.3}Invariante de la representaci\IeC {\'o}n}{1}}
\newlabel{repConjunto_invConjunto}{{1.3}{1}}
\@writefile{toc}{\contentsline {section}{\numberline {1.4}Funci\IeC {\'o}n de abstracci\IeC {\'o}n}{1}}
\newlabel{repConjunto_faConjunto}{{1.4}{1}}
\@writefile{toc}{\contentsline {chapter}{\numberline {2}\IeC {\'I}ndice de clases}{3}}
\@writefile{lof}{\addvspace {10\p@ }}
\@writefile{lot}{\addvspace {10\p@ }}
\@writefile{toc}{\contentsline {section}{\numberline {2.1}Lista de clases}{3}}
\@writefile{toc}{\contentsline {chapter}{\numberline {3}Indice de archivos}{5}}
\@writefile{lof}{\addvspace {10\p@ }}
\@writefile{lot}{\addvspace {10\p@ }}
\@writefile{toc}{\contentsline {section}{\numberline {3.1}Lista de archivos}{5}}
\@writefile{toc}{\contentsline {chapter}{\numberline {4}Documentaci\IeC {\'o}n de las clases}{7}}
\@writefile{lof}{\addvspace {10\p@ }}
\@writefile{lot}{\addvspace {10\p@ }}
\@writefile{toc}{\contentsline {section}{\numberline {4.1}Referencia de la Clase Cronologia}{7}}
\newlabel{classCronologia}{{4.1}{7}}
\newlabel{classCronologia_ac0026b1919148f6cd6cf4ca4c357771e}{{4.1}{7}}
\newlabel{classCronologia_a7e995892e46a00b54d70a905e2bdbc53}{{4.1}{7}}
\@writefile{toc}{\contentsline {subsection}{\numberline {4.1.1}Descripci\IeC {\'o}n detallada}{8}}
\@writefile{toc}{\contentsline {subsection}{\numberline {4.1.2}Documentaci\IeC {\'o}n del constructor y destructor}{8}}
\@writefile{toc}{\contentsline {subsubsection}{\numberline {4.1.2.1}Cronologia(const Cronologia \&c)}{8}}
\newlabel{classCronologia_a35694d459c7f2bc902b8db6abf13662d}{{4.1.2.1}{8}}
\gdef \LT@i {\LT@entry 
    {3}{65.87212pt}\LT@entry 
    {3}{193.89917pt}}
\gdef \LT@ii {\LT@entry 
    {3}{43.8225pt}\LT@entry 
    {3}{104.61813pt}}
\gdef \LT@iii {\LT@entry 
    {3}{42.72441pt}\LT@entry 
    {3}{81.85167pt}}
\gdef \LT@iv {\LT@entry 
    {3}{29.80966pt}\LT@entry 
    {3}{165.3611pt}}
\@writefile{toc}{\contentsline {subsection}{\numberline {4.1.3}Documentaci\IeC {\'o}n de las funciones miembro}{9}}
\@writefile{toc}{\contentsline {subsubsection}{\numberline {4.1.3.1}Aniade\discretionary {\unhbox \voidb@x \hbox {\relax \fontsize  {7}{8}\selectfont  $\leftarrow \joinrel  \rhook $}}{}{}Anio(const int anio, const Evento eventos)}{9}}
\newlabel{classCronologia_aeef2e281e859f556664e3003505936e1}{{4.1.3.1}{9}}
\@writefile{toc}{\contentsline {subsubsection}{\numberline {4.1.3.2}Busca\discretionary {\unhbox \voidb@x \hbox {\relax \fontsize  {7}{8}\selectfont  $\leftarrow \joinrel  \rhook $}}{}{}Anio(const int anio)}{9}}
\newlabel{classCronologia_a2a4e5f91c09e59f042109c3b4b73c8c5}{{4.1.3.2}{9}}
\@writefile{toc}{\contentsline {subsubsection}{\numberline {4.1.3.3}Buscar(const string palabra)}{9}}
\newlabel{classCronologia_aa524d8a1555338e9d95fa7223b567133}{{4.1.3.3}{9}}
\@writefile{toc}{\contentsline {subsubsection}{\numberline {4.1.3.4}Get\discretionary {\unhbox \voidb@x \hbox {\relax \fontsize  {7}{8}\selectfont  $\leftarrow \joinrel  \rhook $}}{}{}Eventos(const int anio)}{9}}
\newlabel{classCronologia_a9277a3658ea9ff12ede9798258d435c2}{{4.1.3.4}{9}}
\@writefile{toc}{\contentsline {subsubsection}{\numberline {4.1.3.5}Get\discretionary {\unhbox \voidb@x \hbox {\relax \fontsize  {7}{8}\selectfont  $\leftarrow \joinrel  \rhook $}}{}{}Vec\discretionary {\unhbox \voidb@x \hbox {\relax \fontsize  {7}{8}\selectfont  $\leftarrow \joinrel  \rhook $}}{}{}Anios() const }{9}}
\newlabel{classCronologia_ac4ad14a7c49cec20819cd150bb6e80de}{{4.1.3.5}{9}}
\@writefile{toc}{\contentsline {subsubsection}{\numberline {4.1.3.6}Get\discretionary {\unhbox \voidb@x \hbox {\relax \fontsize  {7}{8}\selectfont  $\leftarrow \joinrel  \rhook $}}{}{}Vec\discretionary {\unhbox \voidb@x \hbox {\relax \fontsize  {7}{8}\selectfont  $\leftarrow \joinrel  \rhook $}}{}{}Eventos() const }{10}}
\newlabel{classCronologia_adae1157ef52ed1a0c045d3a540af1d08}{{4.1.3.6}{10}}
\@writefile{toc}{\contentsline {subsubsection}{\numberline {4.1.3.7}Tamanio() const }{10}}
\newlabel{classCronologia_a71b39fd2948726c33fd4e4b16786fc20}{{4.1.3.7}{10}}
\@writefile{toc}{\contentsline {subsection}{\numberline {4.1.4}Documentaci\IeC {\'o}n de los datos miembro}{10}}
\@writefile{toc}{\contentsline {subsubsection}{\numberline {4.1.4.1}vec\discretionary {\unhbox \voidb@x \hbox {\relax \fontsize  {7}{8}\selectfont  $\leftarrow \joinrel  \rhook $}}{}{}Anios}{10}}
\newlabel{classCronologia_a71b994da4e0d0fc08300704154eab4c2}{{4.1.4.1}{10}}
\@writefile{toc}{\contentsline {subsubsection}{\numberline {4.1.4.2}vec\discretionary {\unhbox \voidb@x \hbox {\relax \fontsize  {7}{8}\selectfont  $\leftarrow \joinrel  \rhook $}}{}{}Eventos}{10}}
\newlabel{classCronologia_a42b015ea09d32d36ecfd608ff42af6fd}{{4.1.4.2}{10}}
\@writefile{toc}{\contentsline {section}{\numberline {4.2}Referencia de la Clase Evento}{10}}
\newlabel{classEvento}{{4.2}{10}}
\newlabel{classEvento_a1fe5f7549736a17562670d0ac3941bec}{{4.2}{11}}
\newlabel{classEvento_ac21440c7edd9d182de0cc637bd641db2}{{4.2}{11}}
\@writefile{toc}{\contentsline {subsection}{\numberline {4.2.1}Descripci\IeC {\'o}n detallada}{11}}
\gdef \LT@v {\LT@entry 
    {3}{29.80966pt}\LT@entry 
    {3}{198.31802pt}}
\@writefile{toc}{\contentsline {subsection}{\numberline {4.2.2}Documentaci\IeC {\'o}n del constructor y destructor}{12}}
\@writefile{toc}{\contentsline {subsubsection}{\numberline {4.2.2.1}Evento(const int anio)}{12}}
\newlabel{classEvento_a0e5e513e4d3461ed93753b05e378ae0c}{{4.2.2.1}{12}}
\@writefile{toc}{\contentsline {subsubsection}{\numberline {4.2.2.2}Evento(const Evento \&c)}{12}}
\newlabel{classEvento_ac2c66c3478aeafcbb6c9e22ccca953c4}{{4.2.2.2}{12}}
\gdef \LT@vi {\LT@entry 
    {3}{68.64413pt}\LT@entry 
    {3}{203.36685pt}}
\gdef \LT@vii {\LT@entry 
    {3}{39.32253pt}\LT@entry 
    {3}{111.16998pt}}
\gdef \LT@viii {\LT@entry 
    {3}{43.8225pt}\LT@entry 
    {3}{231.21255pt}}
\@writefile{toc}{\contentsline {subsection}{\numberline {4.2.3}Documentaci\IeC {\'o}n de las funciones miembro}{13}}
\@writefile{toc}{\contentsline {subsubsection}{\numberline {4.2.3.1}Aniade\discretionary {\unhbox \voidb@x \hbox {\relax \fontsize  {7}{8}\selectfont  $\leftarrow \joinrel  \rhook $}}{}{}Evento(const string evento)}{13}}
\newlabel{classEvento_a788fe9e92c438b724ed12ee156285533}{{4.2.3.1}{13}}
\@writefile{toc}{\contentsline {subsubsection}{\numberline {4.2.3.2}Busca\discretionary {\unhbox \voidb@x \hbox {\relax \fontsize  {7}{8}\selectfont  $\leftarrow \joinrel  \rhook $}}{}{}Palabra(const string palabra, Evento \&eventos)}{13}}
\newlabel{classEvento_af328c0e845dc77d8150ffcf170878f17}{{4.2.3.2}{13}}
\@writefile{toc}{\contentsline {subsubsection}{\numberline {4.2.3.3}Get\discretionary {\unhbox \voidb@x \hbox {\relax \fontsize  {7}{8}\selectfont  $\leftarrow \joinrel  \rhook $}}{}{}Eventos()}{13}}
\newlabel{classEvento_aaacee38ce29d83e1bc10bf4bfd7a547c}{{4.2.3.3}{13}}
\@writefile{toc}{\contentsline {subsubsection}{\numberline {4.2.3.4}Get\discretionary {\unhbox \voidb@x \hbox {\relax \fontsize  {7}{8}\selectfont  $\leftarrow \joinrel  \rhook $}}{}{}Vec\discretionary {\unhbox \voidb@x \hbox {\relax \fontsize  {7}{8}\selectfont  $\leftarrow \joinrel  \rhook $}}{}{}Eventos() const }{13}}
\newlabel{classEvento_a18365c2bf9587db462718d55ff7ca1ba}{{4.2.3.4}{13}}
\gdef \LT@ix {\LT@entry 
    {3}{29.80966pt}\LT@entry 
    {3}{69.98074pt}}
\@writefile{toc}{\contentsline {subsubsection}{\numberline {4.2.3.5}Get\discretionary {\unhbox \voidb@x \hbox {\relax \fontsize  {7}{8}\selectfont  $\leftarrow \joinrel  \rhook $}}{}{}Vec\discretionary {\unhbox \voidb@x \hbox {\relax \fontsize  {7}{8}\selectfont  $\leftarrow \joinrel  \rhook $}}{}{}Palabras() const }{14}}
\newlabel{classEvento_a768235a06f9446e4051d3821ff504c20}{{4.2.3.5}{14}}
\@writefile{toc}{\contentsline {subsubsection}{\numberline {4.2.3.6}Palabra\discretionary {\unhbox \voidb@x \hbox {\relax \fontsize  {7}{8}\selectfont  $\leftarrow \joinrel  \rhook $}}{}{}En\discretionary {\unhbox \voidb@x \hbox {\relax \fontsize  {7}{8}\selectfont  $\leftarrow \joinrel  \rhook $}}{}{}Rango(const string palabra)}{14}}
\newlabel{classEvento_a9b9f5b04d8b143683bf816d8ef6b903d}{{4.2.3.6}{14}}
\@writefile{toc}{\contentsline {subsubsection}{\numberline {4.2.3.7}Set\discretionary {\unhbox \voidb@x \hbox {\relax \fontsize  {7}{8}\selectfont  $\leftarrow \joinrel  \rhook $}}{}{}Anio(const int anio)}{14}}
\newlabel{classEvento_ae0a6d66d97563830dbc892ce77841d2f}{{4.2.3.7}{14}}
\@writefile{toc}{\contentsline {subsection}{\numberline {4.2.4}Documentaci\IeC {\'o}n de los datos miembro}{14}}
\@writefile{toc}{\contentsline {subsubsection}{\numberline {4.2.4.1}anio}{14}}
\newlabel{classEvento_a4d12d37ec59f7057e996cc27d7591cae}{{4.2.4.1}{14}}
\@writefile{toc}{\contentsline {subsubsection}{\numberline {4.2.4.2}black\discretionary {\unhbox \voidb@x \hbox {\relax \fontsize  {7}{8}\selectfont  $\leftarrow \joinrel  \rhook $}}{}{}Listed}{14}}
\newlabel{classEvento_a1400ae6ca09e115d64323dc903c9f0ad}{{4.2.4.2}{14}}
\@writefile{toc}{\contentsline {subsubsection}{\numberline {4.2.4.3}vec\discretionary {\unhbox \voidb@x \hbox {\relax \fontsize  {7}{8}\selectfont  $\leftarrow \joinrel  \rhook $}}{}{}Eventos}{14}}
\newlabel{classEvento_a75bc40c5154cbb35b6425ef7f077c735}{{4.2.4.3}{14}}
\@writefile{toc}{\contentsline {subsubsection}{\numberline {4.2.4.4}vec\discretionary {\unhbox \voidb@x \hbox {\relax \fontsize  {7}{8}\selectfont  $\leftarrow \joinrel  \rhook $}}{}{}Palabras}{14}}
\newlabel{classEvento_af2712591dacc8d8991ecb1ab2b88275b}{{4.2.4.4}{14}}
\@writefile{toc}{\contentsline {chapter}{\numberline {5}Documentaci\IeC {\'o}n de archivos}{15}}
\@writefile{lof}{\addvspace {10\p@ }}
\@writefile{lot}{\addvspace {10\p@ }}
\@writefile{toc}{\contentsline {section}{\numberline {5.1}Referencia del Archivo include/\discretionary {\unhbox \voidb@x \hbox {\relax \fontsize  {7}{8}\selectfont  $\leftarrow \joinrel  \rhook $}}{}{}T\discretionary {\unhbox \voidb@x \hbox {\relax \fontsize  {7}{8}\selectfont  $\leftarrow \joinrel  \rhook $}}{}{}D\discretionary {\unhbox \voidb@x \hbox {\relax \fontsize  {7}{8}\selectfont  $\leftarrow \joinrel  \rhook $}}{}{}A\discretionary {\unhbox \voidb@x \hbox {\relax \fontsize  {7}{8}\selectfont  $\leftarrow \joinrel  \rhook $}}{}{}Cronologia.h}{15}}
\newlabel{TDACronologia_8h}{{5.1}{15}}
\@writefile{toc}{\contentsline {subsection}{\numberline {5.1.1}Descripci\IeC {\'o}n detallada}{15}}
\@writefile{toc}{\contentsline {subsection}{\numberline {5.1.2}Documentaci\IeC {\'o}n de las funciones}{15}}
\@writefile{toc}{\contentsline {subsubsection}{\numberline {5.1.2.1}operator$<$$<$(ostream \&os, const Cronologia \&cronologia)}{15}}
\newlabel{TDACronologia_8h_a6ecf6f05e3824579238fe03294a4eebd}{{5.1.2.1}{15}}
\gdef \LT@x {\LT@entry 
    {3}{54.31624pt}\LT@entry 
    {3}{125.20996pt}}
\gdef \LT@xi {\LT@entry 
    {3}{54.31624pt}\LT@entry 
    {3}{205.34439pt}}
\gdef \LT@xii {\LT@entry 
    {3}{22.8078pt}\LT@entry 
    {3}{118.94875pt}}
\@writefile{toc}{\contentsline {subsubsection}{\numberline {5.1.2.2}operator$>$$>$(istream \&is, Cronologia \&cronologia)}{16}}
\newlabel{TDACronologia_8h_aef71a0966ce23d90f81f5fb565675008}{{5.1.2.2}{16}}
\@writefile{toc}{\contentsline {section}{\numberline {5.2}Referencia del Archivo include/\discretionary {\unhbox \voidb@x \hbox {\relax \fontsize  {7}{8}\selectfont  $\leftarrow \joinrel  \rhook $}}{}{}T\discretionary {\unhbox \voidb@x \hbox {\relax \fontsize  {7}{8}\selectfont  $\leftarrow \joinrel  \rhook $}}{}{}D\discretionary {\unhbox \voidb@x \hbox {\relax \fontsize  {7}{8}\selectfont  $\leftarrow \joinrel  \rhook $}}{}{}A\discretionary {\unhbox \voidb@x \hbox {\relax \fontsize  {7}{8}\selectfont  $\leftarrow \joinrel  \rhook $}}{}{}Evento.h}{16}}
\newlabel{TDAEvento_8h}{{5.2}{16}}
\gdef \LT@xiii {\LT@entry 
    {3}{39.32253pt}\LT@entry 
    {3}{112.89812pt}}
\@writefile{toc}{\contentsline {subsection}{\numberline {5.2.1}Descripci\IeC {\'o}n detallada}{17}}
\@writefile{toc}{\contentsline {subsection}{\numberline {5.2.2}Documentaci\IeC {\'o}n de las funciones}{17}}
\@writefile{toc}{\contentsline {subsubsection}{\numberline {5.2.2.1}operator$<$$<$(ostream \&os, const Evento \&evento)}{17}}
\newlabel{TDAEvento_8h_acc13641753cc9319014302d538c9a6df}{{5.2.2.1}{17}}
\@writefile{toc}{\contentsline {chapter}{\IeC {\'I}ndice}{19}}
